%YAML 1.1
%TAG !u! tag:unity3d.com,2011:
--- !u!114 &11400000
MonoBehaviour:
  m_ObjectHideFlags: 0
  m_CorrespondingSourceObject: {fileID: 0}
  m_PrefabInternal: {fileID: 0}
  m_GameObject: {fileID: 0}
  m_Enabled: 1
  m_EditorHideFlags: 0
  m_Script: {fileID: 11500000, guid: 2d5751a2c961df945a34295ccf5e576d, type: 3}
  m_Name: Pickup Brush
  m_EditorClassIdentifier: 
  m_Prefabs:
  - {fileID: 1507846454646034, guid: eba9669b1aeeda34c94af628c5507529, type: 2}
  m_PerlinScale: 0.5
  m_Z: 0
